…
You now have a fully customizable & portable tool to retrieve financial
data from Bloomberg and now it’s time to use it.

## Load

In R or Python (examplesolutions will be provided for both programming
languages), load the workbook data in memory. Organise the data in two
dataframes, one for the historical times series, the other for static
(contemporaneous) data. The time series dataframe should have a
two-level row index including tickers & dates while columns should host
the corresponding time series; the dataframe structure should look as
follow:

    ## # A tibble: 62,696 x 11
    ##    ticker    Date       PX_LAST BOOK_VAL_PER_SH TRAIL_12M_EPS
    ##    <chr>     <date>       <dbl>           <dbl>         <dbl>
    ##  1 RAY Index 2016-10-04   1274.            476.          58.4
    ##  2 RAY Index 2016-10-05   1280.            476.          58.4
    ##  3 RAY Index 2016-10-06   1279.            476.          58.4
    ##  4 RAY Index 2016-10-07   1275.            476.          58.5
    ##  5 RAY Index 2016-10-10   1281.            476.          58.5
    ##  6 RAY Index 2016-10-11   1265.            476.          58.5
    ##  7 RAY Index 2016-10-12   1266.            476.          58.5
    ##  8 RAY Index 2016-10-13   1261.            476.          58.5
    ##  9 RAY Index 2016-10-14   1261.            476.          58.5
    ## 10 RAY Index 2016-10-17   1258.            476.          58.6
    ## # ... with 62,686 more rows, and 6 more variables:
    ## #   TRAIL_12M_DVD_PER_SH <dbl>, SHORT_AND_LONG_TERM_DEBT <dbl>,
    ## #   TOTAL_EQUITY <dbl>, BS_CUR_ASSET_REPORT <dbl>, BS_CUR_LIAB <dbl>,
    ## #   SALES_REV_TURN <dbl>

The static dataset on the other hand should be row-indexed by tickers
<<<<<<< HEAD
and have columns hosting the corresponding static fields.
=======
and have columns hosting the corresponding static fields; the dataframe
structure should look as follow:

    ## # A tibble: 120 x 5
    ##    ticker  EQY_SH_OUT NUMBER_OF_DIRECTO~ NUMBER_OF_WOMEN~ BOARD_MEETINGS_~
    ##    <chr>        <dbl>              <dbl>            <dbl>            <dbl>
    ##  1 KHC US~      1219.                 11                2                5
    ##  2 PSX US~       464.                  9                3                6
    ##  3 VLO US~       427.                 10                4                7
    ##  4 ADM US~       560.                 12                2               10
    ##  5 HPE US~      1472.                 12                5               13
    ##  6 NUE US~       316.                  8                2                4
    ##  7 DHI US~       377.                  5                1                7
    ##  8 HFC US~       176.                 11                2               15
    ##  9 KSU US~       102.                 11                3                5
    ## 10 WRK US~       255.                 13                2                8
    ## # ... with 110 more rows
…
